%YAML 1.1
%TAG !u! tag:unity3d.com,2011:
--- !u!1 &5961993828267190020
GameObject:
  m_ObjectHideFlags: 0
  m_CorrespondingSourceObject: {fileID: 0}
  m_PrefabInstance: {fileID: 0}
  m_PrefabAsset: {fileID: 0}
  serializedVersion: 6
  m_Component:
  - component: {fileID: 759187725329645396}
  m_Layer: 7
  m_Name: Platform
  m_TagString: Untagged
  m_Icon: {fileID: 0}
  m_NavMeshLayer: 0
  m_StaticEditorFlags: 0
  m_IsActive: 1
--- !u!4 &759187725329645396
Transform:
  m_ObjectHideFlags: 0
  m_CorrespondingSourceObject: {fileID: 0}
  m_PrefabInstance: {fileID: 0}
  m_PrefabAsset: {fileID: 0}
  m_GameObject: {fileID: 5961993828267190020}
  m_LocalRotation: {x: -0, y: -0, z: -0, w: 1}
  m_LocalPosition: {x: 45.4938, y: -0.2928, z: 0}
  m_LocalScale: {x: 0.6109788, y: 0.14776245, z: 1}
  m_Children:
  - {fileID: 2586551665057451646}
  - {fileID: 3706287808384898945}
  m_Father: {fileID: 0}
  m_RootOrder: 0
  m_LocalEulerAnglesHint: {x: 0, y: 0, z: 0}
--- !u!1001 &3047276136921928834
PrefabInstance:
  m_ObjectHideFlags: 0
  serializedVersion: 2
  m_Modification:
    m_TransformParent: {fileID: 759187725329645396}
    m_Modifications:
    - target: {fileID: 697880411332696828, guid: 95bedf15d918ee54e85af1140028837d, type: 3}
      propertyPath: m_RootOrder
      value: 0
      objectReference: {fileID: 0}
    - target: {fileID: 697880411332696828, guid: 95bedf15d918ee54e85af1140028837d, type: 3}
      propertyPath: m_LocalScale.x
      value: 0.9826772
      objectReference: {fileID: 0}
    - target: {fileID: 697880411332696828, guid: 95bedf15d918ee54e85af1140028837d, type: 3}
      propertyPath: m_LocalScale.y
      value: 1.0557175
      objectReference: {fileID: 0}
    - target: {fileID: 697880411332696828, guid: 95bedf15d918ee54e85af1140028837d, type: 3}
      propertyPath: m_LocalPosition.x
      value: 0.010145823
      objectReference: {fileID: 0}
    - target: {fileID: 697880411332696828, guid: 95bedf15d918ee54e85af1140028837d, type: 3}
      propertyPath: m_LocalPosition.y
      value: 0.15430172
      objectReference: {fileID: 0}
    - target: {fileID: 697880411332696828, guid: 95bedf15d918ee54e85af1140028837d, type: 3}
      propertyPath: m_LocalPosition.z
      value: 0
      objectReference: {fileID: 0}
    - target: {fileID: 697880411332696828, guid: 95bedf15d918ee54e85af1140028837d, type: 3}
      propertyPath: m_LocalRotation.w
      value: 1
      objectReference: {fileID: 0}
    - target: {fileID: 697880411332696828, guid: 95bedf15d918ee54e85af1140028837d, type: 3}
      propertyPath: m_LocalRotation.x
      value: -0
      objectReference: {fileID: 0}
    - target: {fileID: 697880411332696828, guid: 95bedf15d918ee54e85af1140028837d, type: 3}
      propertyPath: m_LocalRotation.y
      value: -0
      objectReference: {fileID: 0}
    - target: {fileID: 697880411332696828, guid: 95bedf15d918ee54e85af1140028837d, type: 3}
      propertyPath: m_LocalRotation.z
      value: -0
      objectReference: {fileID: 0}
    - target: {fileID: 697880411332696828, guid: 95bedf15d918ee54e85af1140028837d, type: 3}
      propertyPath: m_LocalEulerAnglesHint.x
      value: 0
      objectReference: {fileID: 0}
    - target: {fileID: 697880411332696828, guid: 95bedf15d918ee54e85af1140028837d, type: 3}
      propertyPath: m_LocalEulerAnglesHint.y
      value: 0
      objectReference: {fileID: 0}
    - target: {fileID: 697880411332696828, guid: 95bedf15d918ee54e85af1140028837d, type: 3}
      propertyPath: m_LocalEulerAnglesHint.z
      value: 0
      objectReference: {fileID: 0}
    - target: {fileID: 697880411332696830, guid: 95bedf15d918ee54e85af1140028837d, type: 3}
      propertyPath: m_Name
      value: Ground (1)
      objectReference: {fileID: 0}
    m_RemovedComponents: []
  m_SourcePrefab: {fileID: 100100000, guid: 95bedf15d918ee54e85af1140028837d, type: 3}
--- !u!4 &2586551665057451646 stripped
Transform:
  m_CorrespondingSourceObject: {fileID: 697880411332696828, guid: 95bedf15d918ee54e85af1140028837d, type: 3}
  m_PrefabInstance: {fileID: 3047276136921928834}
  m_PrefabAsset: {fileID: 0}
--- !u!1001 &3218691889011177985
PrefabInstance:
  m_ObjectHideFlags: 0
  serializedVersion: 2
  m_Modification:
    m_TransformParent: {fileID: 759187725329645396}
    m_Modifications:
    - target: {fileID: 2289084423772417408, guid: 9bdbead1426898947ae3da803677c6f9, type: 3}
      propertyPath: m_RootOrder
      value: 1
      objectReference: {fileID: 0}
    - target: {fileID: 2289084423772417408, guid: 9bdbead1426898947ae3da803677c6f9, type: 3}
      propertyPath: m_LocalScale.x
      value: 1
      objectReference: {fileID: 0}
    - target: {fileID: 2289084423772417408, guid: 9bdbead1426898947ae3da803677c6f9, type: 3}
      propertyPath: m_LocalScale.y
      value: 1
      objectReference: {fileID: 0}
    - target: {fileID: 2289084423772417408, guid: 9bdbead1426898947ae3da803677c6f9, type: 3}
      propertyPath: m_LocalPosition.x
      value: 0
      objectReference: {fileID: 0}
    - target: {fileID: 2289084423772417408, guid: 9bdbead1426898947ae3da803677c6f9, type: 3}
      propertyPath: m_LocalPosition.y
      value: 0
      objectReference: {fileID: 0}
    - target: {fileID: 2289084423772417408, guid: 9bdbead1426898947ae3da803677c6f9, type: 3}
      propertyPath: m_LocalPosition.z
      value: 0
      objectReference: {fileID: 0}
    - target: {fileID: 2289084423772417408, guid: 9bdbead1426898947ae3da803677c6f9, type: 3}
      propertyPath: m_LocalRotation.w
      value: 1
      objectReference: {fileID: 0}
    - target: {fileID: 2289084423772417408, guid: 9bdbead1426898947ae3da803677c6f9, type: 3}
      propertyPath: m_LocalRotation.x
      value: -0
      objectReference: {fileID: 0}
    - target: {fileID: 2289084423772417408, guid: 9bdbead1426898947ae3da803677c6f9, type: 3}
      propertyPath: m_LocalRotation.y
      value: -0
      objectReference: {fileID: 0}
    - target: {fileID: 2289084423772417408, guid: 9bdbead1426898947ae3da803677c6f9, type: 3}
      propertyPath: m_LocalRotation.z
      value: -0
      objectReference: {fileID: 0}
    - target: {fileID: 2289084423772417408, guid: 9bdbead1426898947ae3da803677c6f9, type: 3}
      propertyPath: m_LocalEulerAnglesHint.x
      value: 0
      objectReference: {fileID: 0}
    - target: {fileID: 2289084423772417408, guid: 9bdbead1426898947ae3da803677c6f9, type: 3}
      propertyPath: m_LocalEulerAnglesHint.y
      value: 0
      objectReference: {fileID: 0}
    - target: {fileID: 2289084423772417408, guid: 9bdbead1426898947ae3da803677c6f9, type: 3}
      propertyPath: m_LocalEulerAnglesHint.z
      value: 0
      objectReference: {fileID: 0}
    - target: {fileID: 2289084423772417410, guid: 9bdbead1426898947ae3da803677c6f9, type: 3}
      propertyPath: m_Name
      value: Wall (1)
      objectReference: {fileID: 0}
    m_RemovedComponents: []
  m_SourcePrefab: {fileID: 100100000, guid: 9bdbead1426898947ae3da803677c6f9, type: 3}
--- !u!4 &3706287808384898945 stripped
Transform:
  m_CorrespondingSourceObject: {fileID: 2289084423772417408, guid: 9bdbead1426898947ae3da803677c6f9, type: 3}
  m_PrefabInstance: {fileID: 3218691889011177985}
  m_PrefabAsset: {fileID: 0}
